<?xml version="1.0" encoding="UTF-8" ?>
<testsuite tests="10" failures="10" name="TestSuite" time="0.111" errors="0" skipped="0">
  <properties>
    <property name="java.runtime.name" value="OpenJDK Runtime Environment"/>
    <property name="sun.boot.library.path" value="/usr/lib/jvm/java-8-openjdk-amd64/jre/lib/amd64"/>
    <property name="java.vm.version" value="25.191-b12"/>
    <property name="java.vm.vendor" value="Oracle Corporation"/>
    <property name="maven.multiModuleProjectDirectory" value="/mnt/c/Users/mkaniecki/IdeaProjects/selenium_easy_exercises"/>
    <property name="java.vendor.url" value="http://java.oracle.com/"/>
    <property name="path.separator" value=":"/>
    <property name="guice.disable.misplaced.annotation.check" value="true"/>
    <property name="java.vm.name" value="OpenJDK 64-Bit Server VM"/>
    <property name="file.encoding.pkg" value="sun.io"/>
    <property name="sun.java.launcher" value="SUN_STANDARD"/>
    <property name="sun.os.patch.level" value="unknown"/>
    <property name="java.vm.specification.name" value="Java Virtual Machine Specification"/>
    <property name="user.dir" value="/mnt/c/Users/mkaniecki/IdeaProjects/selenium_easy_exercises"/>
    <property name="groups" value="smoke"/>
    <property name="java.runtime.version" value="1.8.0_191-8u191-b12-0ubuntu0.18.04.1-b12"/>
    <property name="java.awt.graphicsenv" value="sun.awt.X11GraphicsEnvironment"/>
    <property name="java.endorsed.dirs" value="/usr/lib/jvm/java-8-openjdk-amd64/jre/lib/endorsed"/>
    <property name="os.arch" value="amd64"/>
    <property name="java.io.tmpdir" value="/tmp"/>
    <property name="line.separator" value="
"/>
    <property name="java.vm.specification.vendor" value="Oracle Corporation"/>
    <property name="os.name" value="Linux"/>
    <property name="classworlds.conf" value="/usr/share/maven/bin/m2.conf"/>
    <property name="sun.jnu.encoding" value="UTF-8"/>
    <property name="java.library.path" value="/usr/java/packages/lib/amd64:/usr/lib/x86_64-linux-gnu/jni:/lib/x86_64-linux-gnu:/usr/lib/x86_64-linux-gnu:/usr/lib/jni:/lib:/usr/lib"/>
    <property name="maven.conf" value="/usr/share/maven/conf"/>
    <property name="java.specification.name" value="Java Platform API Specification"/>
    <property name="java.class.version" value="52.0"/>
    <property name="sun.management.compiler" value="HotSpot 64-Bit Tiered Compilers"/>
    <property name="os.version" value="4.4.0-18362-Microsoft"/>
    <property name="library.jansi.path" value="/usr/share/maven/lib/jansi-native"/>
    <property name="user.home" value="/home/mkaniecki"/>
    <property name="user.timezone" value="Europe/Warsaw"/>
    <property name="java.awt.printerjob" value="sun.print.PSPrinterJob"/>
    <property name="java.specification.version" value="1.8"/>
    <property name="file.encoding" value="UTF-8"/>
    <property name="user.name" value="mkaniecki"/>
    <property name="java.class.path" value="/usr/share/maven/boot/plexus-classworlds-2.x.jar"/>
    <property name="java.vm.specification.version" value="1.8"/>
    <property name="sun.arch.data.model" value="64"/>
    <property name="java.home" value="/usr/lib/jvm/java-8-openjdk-amd64/jre"/>
    <property name="sun.java.command" value="org.codehaus.plexus.classworlds.launcher.Launcher test -Dgroups=smoke"/>
    <property name="java.specification.vendor" value="Oracle Corporation"/>
    <property name="user.language" value="en"/>
    <property name="awt.toolkit" value="sun.awt.X11.XToolkit"/>
    <property name="java.vm.info" value="mixed mode"/>
    <property name="java.version" value="1.8.0_191"/>
    <property name="java.ext.dirs" value="/usr/lib/jvm/java-8-openjdk-amd64/jre/lib/ext:/usr/java/packages/lib/ext"/>
    <property name="securerandom.source" value="file:/dev/./urandom"/>
    <property name="sun.boot.class.path" value="/usr/lib/jvm/java-8-openjdk-amd64/jre/lib/resources.jar:/usr/lib/jvm/java-8-openjdk-amd64/jre/lib/rt.jar:/usr/lib/jvm/java-8-openjdk-amd64/jre/lib/sunrsasign.jar:/usr/lib/jvm/java-8-openjdk-amd64/jre/lib/jsse.jar:/usr/lib/jvm/java-8-openjdk-amd64/jre/lib/jce.jar:/usr/lib/jvm/java-8-openjdk-amd64/jre/lib/charsets.jar:/usr/lib/jvm/java-8-openjdk-amd64/jre/lib/jfr.jar:/usr/lib/jvm/java-8-openjdk-amd64/jre/classes"/>
    <property name="java.vendor" value="Oracle Corporation"/>
    <property name="maven.home" value="/usr/share/maven"/>
    <property name="file.separator" value="/"/>
    <property name="java.vendor.url.bug" value="http://bugreport.sun.com/bugreport/"/>
    <property name="sun.cpu.endian" value="little"/>
    <property name="sun.io.unicode.encoding" value="UnicodeLittle"/>
    <property name="sun.cpu.isalist" value=""/>
  </properties>
  <testcase classname="date_pickers.BootstrapDatePickersTest" name="shouldPickDateFromDatePicker" time="0.082">
    <failure type="java.lang.NullPointerException">java.lang.NullPointerException
	at java.util.Objects.requireNonNull(Objects.java:203)
	at org.openqa.selenium.support.ui.FluentWait.&lt;init&gt;(FluentWait.java:106)
	at org.openqa.selenium.support.ui.WebDriverWait.&lt;init&gt;(WebDriverWait.java:85)
	at org.openqa.selenium.support.ui.WebDriverWait.&lt;init&gt;(WebDriverWait.java:64)
	at helper.others.waiter.Waiter.&lt;init&gt;(Waiter.java:17)
	at helper.pages.core.CorePage.&lt;init&gt;(CorePage.java:17)
	at helper.pages.date_pickers.BootstrapDatePickers.&lt;init&gt;(BootstrapDatePickers.java:17)
	at date_pickers.BootstrapDatePickersTest.shouldPickDateFromDatePicker(BootstrapDatePickersTest.java:20)
</failure>
    <system-out>Configuring TestNG with: org.apache.maven.surefire.testng.conf.TestNG652Configurator@546a03af
</system-out>
  </testcase>
  <testcase classname="input_forms.CheckboxDemoTest" name="checkIfButtonNameChangesAfterSelectingAll4Checkboxes" time="0.003">
    <failure type="java.lang.NullPointerException">java.lang.NullPointerException
	at java.util.Objects.requireNonNull(Objects.java:203)
	at org.openqa.selenium.support.ui.FluentWait.&lt;init&gt;(FluentWait.java:106)
	at org.openqa.selenium.support.ui.WebDriverWait.&lt;init&gt;(WebDriverWait.java:85)
	at org.openqa.selenium.support.ui.WebDriverWait.&lt;init&gt;(WebDriverWait.java:64)
	at helper.others.waiter.Waiter.&lt;init&gt;(Waiter.java:17)
	at helper.pages.core.CorePage.&lt;init&gt;(CorePage.java:17)
	at helper.pages.input_forms.CheckboxDemo.&lt;init&gt;(CheckboxDemo.java:15)
	at input_forms.CheckboxDemoTest.checkIfButtonNameChangesAfterSelectingAll4Checkboxes(CheckboxDemoTest.java:37)
</failure>
  </testcase>
  <testcase classname="input_forms.JQuerySelectTest" name="checkIfSearchedAndClickedValueIsVisibleInMultiSelect" time="0.005">
    <failure type="java.lang.NullPointerException">java.lang.NullPointerException
	at java.util.Objects.requireNonNull(Objects.java:203)
	at org.openqa.selenium.support.ui.FluentWait.&lt;init&gt;(FluentWait.java:106)
	at org.openqa.selenium.support.ui.WebDriverWait.&lt;init&gt;(WebDriverWait.java:85)
	at org.openqa.selenium.support.ui.WebDriverWait.&lt;init&gt;(WebDriverWait.java:64)
	at helper.others.waiter.Waiter.&lt;init&gt;(Waiter.java:17)
	at helper.pages.core.CorePage.&lt;init&gt;(CorePage.java:17)
	at helper.pages.input_forms.JQuerySelect.&lt;init&gt;(JQuerySelect.java:20)
	at input_forms.JQuerySelectTest.checkIfSearchedAndClickedValueIsVisibleInMultiSelect(JQuerySelectTest.java:44)
</failure>
  </testcase>
  <testcase classname="input_forms.RadioButtonsDemoTest" name="checkIfMaleValueIsVisibleAfterClickRadioMale" time="0.004">
    <failure type="java.lang.NullPointerException">java.lang.NullPointerException
	at java.util.Objects.requireNonNull(Objects.java:203)
	at org.openqa.selenium.support.ui.FluentWait.&lt;init&gt;(FluentWait.java:106)
	at org.openqa.selenium.support.ui.WebDriverWait.&lt;init&gt;(WebDriverWait.java:85)
	at org.openqa.selenium.support.ui.WebDriverWait.&lt;init&gt;(WebDriverWait.java:64)
	at helper.others.waiter.Waiter.&lt;init&gt;(Waiter.java:17)
	at helper.pages.core.CorePage.&lt;init&gt;(CorePage.java:17)
	at helper.pages.input_forms.RadioButtonsDemo.&lt;init&gt;(RadioButtonsDemo.java:13)
	at input_forms.RadioButtonsDemoTest.checkIfMaleValueIsVisibleAfterClickRadioMale(RadioButtonsDemoTest.java:17)
</failure>
  </testcase>
  <testcase classname="input_forms.SelectDropdownDemoTest" name="checkIfAllResultsAppearsAfterSelectingAllStatesAndClickingGetAllSelected" time="0.003">
    <failure type="java.lang.NullPointerException">java.lang.NullPointerException
	at java.util.Objects.requireNonNull(Objects.java:203)
	at org.openqa.selenium.support.ui.FluentWait.&lt;init&gt;(FluentWait.java:106)
	at org.openqa.selenium.support.ui.WebDriverWait.&lt;init&gt;(WebDriverWait.java:85)
	at org.openqa.selenium.support.ui.WebDriverWait.&lt;init&gt;(WebDriverWait.java:64)
	at helper.others.waiter.Waiter.&lt;init&gt;(Waiter.java:17)
	at helper.pages.core.CorePage.&lt;init&gt;(CorePage.java:17)
	at helper.pages.input_forms.SelectDropdownDemo.&lt;init&gt;(SelectDropdownDemo.java:13)
	at input_forms.SelectDropdownDemoTest.checkIfAllResultsAppearsAfterSelectingAllStatesAndClickingGetAllSelected(SelectDropdownDemoTest.java:86)
</failure>
  </testcase>
  <testcase classname="input_forms.SimpleFormDemoTest" name="checkIfEnteredValuesSumIsCorrect" time="0.003">
    <failure type="java.lang.NullPointerException">java.lang.NullPointerException
	at java.util.Objects.requireNonNull(Objects.java:203)
	at org.openqa.selenium.support.ui.FluentWait.&lt;init&gt;(FluentWait.java:106)
	at org.openqa.selenium.support.ui.WebDriverWait.&lt;init&gt;(WebDriverWait.java:85)
	at org.openqa.selenium.support.ui.WebDriverWait.&lt;init&gt;(WebDriverWait.java:64)
	at helper.others.waiter.Waiter.&lt;init&gt;(Waiter.java:17)
	at helper.pages.core.CorePage.&lt;init&gt;(CorePage.java:17)
	at helper.pages.input_forms.SimpleFormDemo.&lt;init&gt;(SimpleFormDemo.java:12)
	at input_forms.SimpleFormDemoTest.checkIfEnteredValuesSumIsCorrect(SimpleFormDemoTest.java:32)
</failure>
  </testcase>
  <testcase classname="progress_bar_sliders.JQueryProgressBarTest" name="shouldCheckIfCompleteMessageIsDisplayedAfterDownload" time="0.003">
    <failure type="java.lang.NullPointerException">java.lang.NullPointerException
	at java.util.Objects.requireNonNull(Objects.java:203)
	at org.openqa.selenium.support.ui.FluentWait.&lt;init&gt;(FluentWait.java:106)
	at org.openqa.selenium.support.ui.WebDriverWait.&lt;init&gt;(WebDriverWait.java:85)
	at org.openqa.selenium.support.ui.WebDriverWait.&lt;init&gt;(WebDriverWait.java:64)
	at helper.others.waiter.Waiter.&lt;init&gt;(Waiter.java:17)
	at helper.pages.core.CorePage.&lt;init&gt;(CorePage.java:17)
	at helper.pages.progress_bar_sliders.JQueryProgressBar.&lt;init&gt;(JQueryProgressBar.java:15)
	at progress_bar_sliders.JQueryProgressBarTest.shouldCheckIfCompleteMessageIsDisplayedAfterDownload(JQueryProgressBarTest.java:15)
</failure>
  </testcase>
  <testcase classname="table.TableDataSearchTest" name="shouldFilterTasksByStatus" time="0.003">
    <failure type="java.lang.NullPointerException">java.lang.NullPointerException
	at java.util.Objects.requireNonNull(Objects.java:203)
	at org.openqa.selenium.support.ui.FluentWait.&lt;init&gt;(FluentWait.java:106)
	at org.openqa.selenium.support.ui.WebDriverWait.&lt;init&gt;(WebDriverWait.java:85)
	at org.openqa.selenium.support.ui.WebDriverWait.&lt;init&gt;(WebDriverWait.java:64)
	at helper.others.waiter.Waiter.&lt;init&gt;(Waiter.java:17)
	at helper.pages.core.CorePage.&lt;init&gt;(CorePage.java:17)
	at helper.pages.table.TableDataSearch.&lt;init&gt;(TableDataSearch.java:19)
	at table.TableDataSearchTest.shouldFilterTasksByStatus(TableDataSearchTest.java:19)
</failure>
  </testcase>
  <testcase classname="table.TableFilterTest" name="shouldFilterRecordsByAll" time="0.002">
    <failure type="java.lang.NullPointerException">java.lang.NullPointerException
	at java.util.Objects.requireNonNull(Objects.java:203)
	at org.openqa.selenium.support.ui.FluentWait.&lt;init&gt;(FluentWait.java:106)
	at org.openqa.selenium.support.ui.WebDriverWait.&lt;init&gt;(WebDriverWait.java:85)
	at org.openqa.selenium.support.ui.WebDriverWait.&lt;init&gt;(WebDriverWait.java:64)
	at helper.others.waiter.Waiter.&lt;init&gt;(Waiter.java:17)
	at helper.pages.core.CorePage.&lt;init&gt;(CorePage.java:17)
	at helper.pages.table.TableFilter.&lt;init&gt;(TableFilter.java:31)
	at table.TableFilterTest.shouldFilterRecordsByAll(TableFilterTest.java:58)
</failure>
  </testcase>
  <testcase classname="table.TablePaginationTest" name="shouldCheckIfTableHasLessThan15Rows" time="0.003">
    <failure type="java.lang.NullPointerException">java.lang.NullPointerException
	at java.util.Objects.requireNonNull(Objects.java:203)
	at org.openqa.selenium.support.ui.FluentWait.&lt;init&gt;(FluentWait.java:106)
	at org.openqa.selenium.support.ui.WebDriverWait.&lt;init&gt;(WebDriverWait.java:85)
	at org.openqa.selenium.support.ui.WebDriverWait.&lt;init&gt;(WebDriverWait.java:64)
	at helper.others.waiter.Waiter.&lt;init&gt;(Waiter.java:17)
	at helper.pages.core.CorePage.&lt;init&gt;(CorePage.java:17)
	at helper.pages.table.TablePagination.&lt;init&gt;(TablePagination.java:14)
	at table.TablePaginationTest.shouldCheckIfTableHasLessThan15Rows(TablePaginationTest.java:15)
</failure>
  </testcase>
</testsuite>